lab3/src/lab3/Debug/signals.vcd
$date
     Apr 28, 2022       14:19:08
$end

$version
 SystemC 2.3.3-Accellera --- Apr 14 2022 17:14:15
$end

$timescale
     1 ns
$end

$scope module SystemC $end
$var wire    1  aaaaa  CLK       $end
$var real    1  aaaab  In1       $end
$var real    1  aaaac  In2       $end
$var real    1  aaaad  Sum       $end
$var real    1  aaaae  Diff       $end
$var real    1  aaaaf  Prod       $end
$var real    1  aaaag  Quot       $end
$var real    1  aaaah  Pow       $end
$upscope $end
$enddefinitions  $end

$comment
All initial values are dumped below at time 0 sec = 0 timescale units.
$end

$dumpvars
0aaaaa
r139.5 aaaab
r82.87 aaaac
r0 aaaad
r0 aaaae
r0 aaaaf
r0 aaaag
r0 aaaah
$end

#10
1aaaaa
r137.7 aaaab
r80.57000000000001 aaaac
r222.37 aaaad
r56.63 aaaae

#20
0aaaaa

#30
1aaaaa
r135.9 aaaab
r78.27000000000001 aaaac
r218.27 aaaad
r57.12999999999998 aaaae
r12592.8131 aaaaf
r3.926717287656719 aaaag

#40
0aaaaa

#50
1aaaaa
r134.1 aaaab
r75.97000000000001 aaaac
r214.17 aaaad
r57.62999999999997 aaaae
r12469.7651 aaaaf
r3.820584631542098 aaaag
r1.25899183672328e+16 aaaah

#60
0aaaaa

#70
1aaaaa
r132.3 aaaab
r73.67000000000002 aaaac
r210.07 aaaad
r58.12999999999995 aaaae
r12342.61709999999 aaaaf
r3.716293597084853 aaaag
r4452184659576360 aaaah

#80
0aaaaa

#90
1aaaaa
r130.4999999999999 aaaab
r71.37000000000002 aaaac
r205.97 aaaad
r58.62999999999994 aaaae
r12211.36909999999 aaaaf
r3.613796662652678 aaaag
r1602767728916902 aaaah

#100
0aaaaa

#110
1aaaaa
r128.6999999999999 aaaab
r69.07000000000002 aaaac
r201.8699999999999 aaaad
r59.12999999999992 aaaae
r12076.02109999999 aaaaf
r3.513047927682077 aaaag
r587131524636974.5 aaaah

#120
0aaaaa

#130
1aaaaa
r126.8999999999999 aaaab
r66.77000000000002 aaaac
r197.77 aaaad
r59.62999999999991 aaaae
r11936.57309999998 aaaaf
r3.414003044140034 aaaag
r218773224790690.8 aaaah

#140
0aaaaa

#150
1aaaaa
r125.0999999999999 aaaab
r64.47000000000003 aaaac
r193.67 aaaad
r60.12999999999991 aaaae
r11793.02509999998 aaaaf
r3.316619151433846 aaaag
r82885693727442.59 aaaah

#160
0aaaaa

#170
1aaaaa
r123.2999999999999 aaaab
r62.17000000000003 aaaac
r189.57 aaaad
r60.62999999999991 aaaae
r11645.37709999998 aaaaf
r3.220854814568439 aaaag
r31917597350154.89 aaaah

#180
0aaaaa

#190
1aaaaa
r121.4999999999999 aaaab
r59.87000000000003 aaaac
r185.47 aaaad
r61.12999999999991 aaaae
r11493.62909999998 aaaaf
r3.126669965363686 aaaag
r12487924342369.35 aaaah

#200
0aaaaa

#210
1aaaaa
r119.6999999999999 aaaab
r57.57000000000004 aaaac
r181.37 aaaad
r61.62999999999991 aaaae
r11337.78109999998 aaaaf
r3.034025846556523 aaaag
r4962602672561.222 aaaah

#220
0aaaaa

#230
1aaaaa
r117.8999999999999 aaaab
r55.27000000000004 aaaac
r177.27 aaaad
r62.12999999999991 aaaae
r11177.83309999998 aaaaf
r2.942884958624051 aaaag
r2002363652188.988 aaaah

#240
0aaaaa

#250
1aaaaa
r116.1 aaaab
r52.97000000000004 aaaac
r173.17 aaaad
r62.62999999999991 aaaae
r11013.78509999998 aaaaf
r2.853211009174316 aaaag
r820069668529.3804 aaaah

#260
0aaaaa

#270
1aaaaa
r114.3 aaaab
r50.67000000000004 aaaac
r169.07 aaaad
r63.12999999999991 aaaae
r10845.63709999998 aaaaf
r2.7649688647613 aaaag
r340798755901.6628 aaaah

#280
0aaaaa

#290
1aaaaa
r112.5 aaaab
r48.37000000000005 aaaac
r164.97 aaaad
r63.62999999999991 aaaae
r10673.38909999998 aaaaf
r2.678124504989707 aaaag
r143666207095.4403 aaaah

#300
0aaaaa

#310
1aaaaa
r110.7 aaaab
r46.07000000000005 aaaac
r160.87 aaaad
r64.12999999999991 aaaae
r10497.04109999999 aaaaf
r2.592644978783596 aaaag
r61417935723.87846 aaaah

#320
0aaaaa

#330
1aaaaa
r108.9 aaaab
r43.77000000000005 aaaac
r156.77 aaaad
r64.62999999999991 aaaae
r10316.59309999999 aaaaf
r2.508498362700768 aaaag
r26619439181.32385 aaaah

#340
0aaaaa

#350
1aaaaa
r107.1 aaaab
r41.47000000000006 aaaac
r152.67 aaaad
r65.12999999999991 aaaae
r10132.04509999999 aaaaf
r2.425653721182117 aaaag
r11693627129.7744 aaaah

#360
0aaaaa

#370
1aaaaa
r105.3 aaaab
r39.17000000000006 aaaac
r148.57 aaaad
r65.62999999999991 aaaae
r9943.397099999987 aaaaf
r2.34408106863197 aaaag
r5205160328.791242 aaaah

#380
0aaaaa

#390
1aaaaa
r103.5 aaaab
r36.87000000000006 aaaac
r144.47 aaaad
r66.12999999999991 aaaae
r9750.649099999988 aaaaf
r2.263751333231757 aaaag
r2347175740.518293 aaaah

#400
0aaaaa

#410
1aaaaa
r101.7 aaaab
r34.57000000000006 aaaac
r140.37 aaaad
r66.62999999999991 aaaae
r9553.80109999999 aaaaf
r2.184636322395285 aaaag
r1071963422.036094 aaaah

#420
0aaaaa

#430
1aaaaa
r99.89999999999998 aaaab
r32.27000000000007 aaaac
r136.27 aaaad
r67.12999999999991 aaaae
r9352.853099999989 aaaaf
r2.106708689779382 aaaag
r495721193.0079303 aaaah

#440
0aaaaa

#450
1aaaaa
r98.09999999999998 aaaab
r29.97000000000007 aaaac
r132.17 aaaad
r67.62999999999991 aaaae
r9147.80509999999 aaaaf
r2.02994190376881 aaaag
r232071852.9626967 aaaah

#460
0aaaaa

#470
1aaaaa
r96.29999999999998 aaaab
r27.67000000000007 aaaac
r128.0700000000001 aaaad
r68.12999999999991 aaaae
r8938.657099999991 aaaaf
r1.954310217359163 aaaag
r109962138.1146682 aaaah

#480
0aaaaa

#490
1aaaaa
r94.49999999999999 aaaab
r25.37000000000006 aaaac
r123.9700000000001 aaaad
r68.62999999999991 aaaae
r8725.409099999992 aaaaf
r1.879788639365921 aaaag
r52724416.64895536 aaaah

#500
0aaaaa

#510
1aaaaa
r92.69999999999999 aaaab
r23.07000000000006 aaaac
r119.87 aaaad
r69.12999999999992 aaaae
r8508.061099999994 aaaaf
r1.806352906892033 aaaag
r25576692.02837483 aaaah

#520
0aaaaa

#530
1aaaaa
r90.89999999999999 aaaab
r20.77000000000006 aaaac
r115.7700000000001 aaaad
r69.62999999999992 aaaae
r8286.613099999995 aaaaf
r1.733979458990311 aaaag
r12550497.11110835 aaaah

#540
0aaaaa

#550
1aaaaa
r89.09999999999999 aaaab
r18.47000000000006 aaaac
r111.6700000000001 aaaad
r70.12999999999992 aaaae
r8061.065099999995 aaaaf
r1.66264541146058 aaaag
r6228526.814179871 aaaah

#560
0aaaaa

#570
1aaaaa
r87.3 aaaab
r16.17000000000006 aaaac
r107.5700000000001 aaaad
r70.62999999999994 aaaae
r7831.417099999996 aaaaf
r1.592328532724942 aaaag
r3125686.712606755 aaaah

#580
0aaaaa

#590
1aaaaa
r85.5 aaaab
r13.87000000000006 aaaac
r103.4700000000001 aaaad
r71.12999999999994 aaaae
r7597.669099999997 aaaaf
r1.523007220727738 aaaag
r1585890.140848047 aaaah

#600
0aaaaa

#610
1aaaaa
r83.7 aaaab
r11.57000000000006 aaaac
r99.37000000000006 aaaad
r71.62999999999994 aaaae
r7359.821099999997 aaaaf
r1.454660480809787 aaaag
r813400.1202500423 aaaah

#620
0aaaaa

#630
1aaaaa
r81.90000000000001 aaaab
r9.27000000000006 aaaac
r95.27000000000007 aaaad
r72.12999999999994 aaaae
r7117.873099999998 aaaaf
r1.387267904509286 aaaag
r421676.0979770237 aaaah

#640
0aaaaa

#650
1aaaaa
r80.10000000000001 aaaab
r6.97000000000006 aaaac
r91.17000000000007 aaaad
r72.62999999999994 aaaae
r6871.825099999999 aaaaf
r1.320809649244422 aaaag
r220923.4650443486 aaaah

#660
0aaaaa

#670
1aaaaa
r78.30000000000001 aaaab
r4.67000000000006 aaaac
r87.07000000000006 aaaad
r73.12999999999995 aaaae
r6621.6771 aaaaf
r1.255266418835194 aaaag
r116961.2096106817 aaaah

#680
0aaaaa

#690
1aaaaa
r76.50000000000001 aaaab
r2.370000000000061 aaaac
r82.97000000000007 aaaad
r73.62999999999995 aaaae
r6367.4291 aaaaf
r1.190619444824287 aaaag
r62565.19702395156 aaaah

#700
0aaaaa

#710
1aaaaa
r74.70000000000002 aaaab
r0.07000000000006068 aaaac
r78.87000000000008 aaaad
r74.12999999999995 aaaae
r6109.081100000001 aaaaf
r1.126850468559013 aaaag
r33812.21689405264 aaaah

#720
0aaaaa

#730
1aaaaa
r72.90000000000002 aaaab
r-2.229999999999939 aaaac
r74.77000000000008 aaaad
r74.62999999999995 aaaae
r5846.633100000002 aaaaf
r1.063941723998383 aaaag
r18459.87288919744 aaaah

#740
0aaaaa

#750
1aaaaa
r71.10000000000002 aaaab
r-4.529999999999939 aaaac
r70.67000000000009 aaaad
r75.12999999999995 aaaae
r5580.085100000003 aaaaf
r1.001875921211311 aaaag
r10180.48092593946 aaaah

#760
0aaaaa

#770
1aaaaa
r69.30000000000003 aaaab
r-6.829999999999939 aaaac
r66.57000000000008 aaaad
r75.62999999999997 aaaae
r5309.437100000003 aaaaf
r0.9406362305337432 aaaag
r5671.125070138424 aaaah

#780
0aaaaa

#790
1aaaaa
r67.50000000000003 aaaab
r-9.129999999999939 aaaac
r62.47000000000008 aaaad
r76.12999999999997 aaaae
r5034.689100000004 aaaaf
r0.8802062673542259 aaaag
r3190.917390624413 aaaah

#800
0aaaaa

#810
1aaaaa
r65.70000000000003 aaaab
r-11.42999999999994 aaaac
r58.37000000000009 aaaad
r76.62999999999997 aaaae
r4755.841100000004 aaaaf
r0.8205700774990163 aaaag
r1813.424732442894 aaaah

#820
0aaaaa

#830
1aaaaa
r63.90000000000003 aaaab
r-13.72999999999994 aaaac
r54.2700000000001 aaaad
r77.12999999999997 aaaae
r4472.893100000005 aaaaf
r0.7617121231893529 aaaag
r1040.932863304336 aaaah

#840
0aaaaa

#850
1aaaaa
r62.10000000000004 aaaab
r-16.02999999999994 aaaac
r50.17000000000009 aaaad
r77.62999999999997 aaaae
r4185.845100000006 aaaaf
r0.7036172695449256 aaaag
r603.5281502154055 aaaah

#860
0aaaaa

#870
1aaaaa
r60.30000000000004 aaaab
r-18.32999999999994 aaaac
r46.07000000000009 aaaad
r78.12999999999998 aaaae
r3894.697100000006 aaaaf
r0.6462707716089156 aaaag
r353.4672434001099 aaaah

#880
0aaaaa

#890
1aaaaa
r58.50000000000004 aaaab
r-20.62999999999994 aaaac
r41.9700000000001 aaaad
r78.62999999999998 aaaae
r3599.449100000006 aaaaf
r0.5896582618712416 aaaag
r209.1308970169988 aaaah

#900
0aaaaa

#910
1aaaaa
r56.70000000000005 aaaab
r-22.92999999999994 aaaac
r37.8700000000001 aaaad
r79.12999999999998 aaaae
r3300.101100000007 aaaaf
r0.5337657382678381 aaaag
r125.015528192304 aaaah

#920
0aaaaa

#930
1aaaaa
r54.90000000000005 aaaab
r-25.22999999999994 aaaac
r33.7700000000001 aaaad
r79.63 aaaae
r2996.653100000008 aaaaf
r0.478579552634906 aaaag
r75.52127136208951 aaaah

#940
0aaaaa

#950
1aaaaa
r53.10000000000005 aaaab
r-27.52999999999994 aaaac
r29.6700000000001 aaaad
r80.13 aaaae
r2689.105100000008 aaaaf
r0.4240863995981427 aaaag
r46.1155217811098 aaaah

#960
0aaaaa

#970
1aaaaa
r51.30000000000005 aaaab
r-29.82999999999995 aaaac
r25.57000000000011 aaaad
r80.63 aaaae
r2377.457100000008 aaaaf
r0.3702733058779497 aaaag
r28.47410052321881 aaaah

#980
0aaaaa

#990
1aaaaa
r49.50000000000006 aaaab
r-32.12999999999995 aaaac
r21.47000000000011 aaaad
r81.13 aaaae
r2061.709100000009 aaaaf
r0.31712761999256 aaaag
r17.78625057394926 aaaah

